Suite/Test/Step Name,Browser,Description,Tag,Start time,End time,Duration,Status
Dashboard Scenario,Edge Chromium 115,,,2023-08-12 13:25:27,2023-08-12 13:31:48,6m - 21.051s,FAILED
,,,,,,,
Test Cases/S009-Dashboard/WDash-001 - To Dashboard page,Edge Chromium 115,,,2023-08-12 13:25:28,2023-08-12 13:26:19,50.906s,PASSED
"callTestCase(findTestCase(""WLog-001""), [:], STOP_ON_FAILURE)",Edge Chromium 115,,,2023-08-12 13:25:29,2023-08-12 13:26:00,30.267s,PASSED
takeFullPageScreenshot(),Edge Chromium 115,,,2023-08-12 13:26:00,2023-08-12 13:26:08,8.664s,PASSED
"mouseOver(findTestObject(""Home/Icon_User""))",Edge Chromium 115,,,2023-08-12 13:26:08,2023-08-12 13:26:10,1.374s,PASSED
delay(3),Edge Chromium 115,,,2023-08-12 13:26:10,2023-08-12 13:26:13,3.044s,PASSED
"click(findTestObject(""Home/Menu_My Account""), STOP_ON_FAILURE)",Edge Chromium 115,,,2023-08-12 13:26:13,2023-08-12 13:26:16,3.685s,PASSED
takeFullPageScreenshot(),Edge Chromium 115,,,2023-08-12 13:26:16,2023-08-12 13:26:18,1.464s,PASSED
closeBrowser(),Edge Chromium 115,,,2023-08-12 13:26:18,2023-08-12 13:26:19,1.102s,PASSED
,,,,,,,
Test Cases/S009-Dashboard/WDash-002 - My Points on Dashboard,Edge Chromium 115,,,2023-08-12 13:26:19,2023-08-12 13:26:49,30.066s,FAILED
"callTestCase(findTestCase(""WLog-001""), [:], STOP_ON_FAILURE)",Edge Chromium 115,,,2023-08-12 13:26:20,2023-08-12 13:26:44,23.629s,PASSED
"mouseOver(findTestObject(""Home/Icon_User""))",Edge Chromium 115,,,2023-08-12 13:26:44,2023-08-12 13:26:45,1.038s,PASSED
delay(3),Edge Chromium 115,,,2023-08-12 13:26:45,2023-08-12 13:26:48,3.010s,PASSED
"click(findTestObject(""Home/Menu_My Account""), STOP_ON_FAILURE)",Edge Chromium 115,,,2023-08-12 13:26:48,2023-08-12 13:26:49,1.525s,FAILED
,,,,,,,
Test Cases/S009-Dashboard/WDash-003 - My Events on Dashboard,Edge Chromium 115,,,2023-08-12 13:26:49,2023-08-12 13:27:19,30.299s,FAILED
"callTestCase(findTestCase(""WLog-001""), [:], STOP_ON_FAILURE)",Edge Chromium 115,,,2023-08-12 13:26:50,2023-08-12 13:27:14,23.468s,PASSED
"mouseOver(findTestObject(""Home/Icon_User""))",Edge Chromium 115,,,2023-08-12 13:27:14,2023-08-12 13:27:15,1.757s,PASSED
delay(3),Edge Chromium 115,,,2023-08-12 13:27:15,2023-08-12 13:27:18,3.011s,PASSED
"click(findTestObject(""Home/Menu_My Account""), STOP_ON_FAILURE)",Edge Chromium 115,,,2023-08-12 13:27:18,2023-08-12 13:27:19,1.057s,FAILED
,,,,,,,
Test Cases/S009-Dashboard/WDash-004 - Link CodingId on Footer,Edge Chromium 115,,,2023-08-12 13:27:19,2023-08-12 13:27:56,36.350s,PASSED
"callTestCase(findTestCase(""WLog-001""), [:], STOP_ON_FAILURE)",Edge Chromium 115,,,2023-08-12 13:27:20,2023-08-12 13:27:43,22.677s,PASSED
"mouseOver(findTestObject(""Home/Icon_User""))",Edge Chromium 115,,,2023-08-12 13:27:43,2023-08-12 13:27:44,1.092s,PASSED
delay(3),Edge Chromium 115,,,2023-08-12 13:27:44,2023-08-12 13:27:47,3.014s,PASSED
"click(findTestObject(""Home/Menu_My Account""), STOP_ON_FAILURE)",Edge Chromium 115,,,2023-08-12 13:27:47,2023-08-12 13:27:50,2.640s,PASSED
takeFullPageScreenshot(),Edge Chromium 115,,,2023-08-12 13:27:50,2023-08-12 13:27:51,1.532s,PASSED
"click(findTestObject(""Dashboard/Footer_Home""))",Edge Chromium 115,,,2023-08-12 13:27:51,2023-08-12 13:27:54,2.196s,PASSED
takeFullPageScreenshot(),Edge Chromium 115,,,2023-08-12 13:27:54,2023-08-12 13:27:55,0.938s,PASSED
closeBrowser(),Edge Chromium 115,,,2023-08-12 13:27:55,2023-08-12 13:27:56,1.260s,PASSED
,,,,,,,
Test Cases/S009-Dashboard/WDash-005 - Profil on Basic Info,Edge Chromium 115,,,2023-08-12 13:27:56,2023-08-12 13:28:36,40.015s,PASSED
"callTestCase(findTestCase(""WLog-001""), [:], STOP_ON_FAILURE)",Edge Chromium 115,,,2023-08-12 13:27:57,2023-08-12 13:28:23,25.816s,PASSED
"mouseOver(findTestObject(""Home/Icon_User""))",Edge Chromium 115,,,2023-08-12 13:28:23,2023-08-12 13:28:24,1.097s,PASSED
delay(3),Edge Chromium 115,,,2023-08-12 13:28:24,2023-08-12 13:28:27,3.014s,PASSED
"click(findTestObject(""Home/Menu_My Account""), STOP_ON_FAILURE)",Edge Chromium 115,,,2023-08-12 13:28:27,2023-08-12 13:28:29,2.509s,PASSED
takeFullPageScreenshot(),Edge Chromium 115,,,2023-08-12 13:28:29,2023-08-12 13:28:31,1.538s,PASSED
"click(findTestObject(""Dashboard/Menu_Profil""))",Edge Chromium 115,,,2023-08-12 13:28:31,2023-08-12 13:28:33,2.102s,PASSED
takeFullPageScreenshot(),Edge Chromium 115,,,2023-08-12 13:28:33,2023-08-12 13:28:35,1.501s,PASSED
closeBrowser(),Edge Chromium 115,,,2023-08-12 13:28:35,2023-08-12 13:28:36,1.357s,PASSED
,,,,,,,
Test Cases/S009-Dashboard/WDash-006 - Billing Account on Basic Info,Edge Chromium 115,,,2023-08-12 13:28:36,2023-08-12 13:29:08,32.552s,PASSED
"callTestCase(findTestCase(""WLog-001""), [:], STOP_ON_FAILURE)",Edge Chromium 115,,,2023-08-12 13:28:37,2023-08-12 13:28:57,20.052s,PASSED
"mouseOver(findTestObject(""Home/Icon_User""))",Edge Chromium 115,,,2023-08-12 13:28:57,2023-08-12 13:28:58,0.954s,PASSED
delay(3),Edge Chromium 115,,,2023-08-12 13:28:58,2023-08-12 13:29:01,3.017s,PASSED
"click(findTestObject(""Home/Menu_My Account""), STOP_ON_FAILURE)",Edge Chromium 115,,,2023-08-12 13:29:01,2023-08-12 13:29:03,2.045s,PASSED
takeFullPageScreenshot(),Edge Chromium 115,,,2023-08-12 13:29:03,2023-08-12 13:29:04,1.477s,PASSED
"click(findTestObject(""Dashboard/Menu_Billing Account""))",Edge Chromium 115,,,2023-08-12 13:29:04,2023-08-12 13:29:06,1.905s,PASSED
takeFullPageScreenshot(),Edge Chromium 115,,,2023-08-12 13:29:06,2023-08-12 13:29:08,1.322s,PASSED
closeBrowser(),Edge Chromium 115,,,2023-08-12 13:29:08,2023-08-12 13:29:08,0.962s,PASSED
,,,,,,,
Test Cases/S009-Dashboard/WDash-007 - My Events on Transaction,Edge Chromium 115,,,2023-08-12 13:29:09,2023-08-12 13:29:43,34.607s,PASSED
"callTestCase(findTestCase(""WLog-001""), [:], STOP_ON_FAILURE)",Edge Chromium 115,,,2023-08-12 13:29:09,2023-08-12 13:29:29,19.867s,PASSED
"mouseOver(findTestObject(""Home/Icon_User""))",Edge Chromium 115,,,2023-08-12 13:29:29,2023-08-12 13:29:30,1.060s,PASSED
delay(3),Edge Chromium 115,,,2023-08-12 13:29:30,2023-08-12 13:29:33,3.018s,PASSED
"click(findTestObject(""Home/Menu_My Account""), STOP_ON_FAILURE)",Edge Chromium 115,,,2023-08-12 13:29:33,2023-08-12 13:29:36,3.017s,PASSED
takeFullPageScreenshot(),Edge Chromium 115,,,2023-08-12 13:29:36,2023-08-12 13:29:38,1.348s,PASSED
"click(findTestObject(""Dashboard/Menu_My Events""))",Edge Chromium 115,,,2023-08-12 13:29:38,2023-08-12 13:29:40,2.812s,PASSED
takeFullPageScreenshot(),Edge Chromium 115,,,2023-08-12 13:29:40,2023-08-12 13:29:42,1.393s,PASSED
closeBrowser(),Edge Chromium 115,,,2023-08-12 13:29:42,2023-08-12 13:29:43,1.319s,PASSED
,,,,,,,
Test Cases/S009-Dashboard/WDash-008 - My Course on Transaction,Edge Chromium 115,,,2023-08-12 13:29:43,2023-08-12 13:30:33,50.231s,PASSED
"callTestCase(findTestCase(""WLog-001""), [:], STOP_ON_FAILURE)",Edge Chromium 115,,,2023-08-12 13:29:44,2023-08-12 13:30:16,32.065s,PASSED
"mouseOver(findTestObject(""Home/Icon_User""))",Edge Chromium 115,,,2023-08-12 13:30:16,2023-08-12 13:30:18,1.571s,PASSED
delay(3),Edge Chromium 115,,,2023-08-12 13:30:18,2023-08-12 13:30:21,3.014s,PASSED
"click(findTestObject(""Home/Menu_My Account""), STOP_ON_FAILURE)",Edge Chromium 115,,,2023-08-12 13:30:21,2023-08-12 13:30:25,4.699s,PASSED
takeFullPageScreenshot(),Edge Chromium 115,,,2023-08-12 13:30:25,2023-08-12 13:30:27,1.297s,PASSED
"click(findTestObject(""Dashboard/Menu_My Course""))",Edge Chromium 115,,,2023-08-12 13:30:27,2023-08-12 13:30:31,4.176s,PASSED
takeFullPageScreenshot(),Edge Chromium 115,,,2023-08-12 13:30:31,2023-08-12 13:30:32,1.443s,PASSED
closeBrowser(),Edge Chromium 115,,,2023-08-12 13:30:32,2023-08-12 13:30:33,1.202s,PASSED
,,,,,,,
Test Cases/S009-Dashboard/WDash-009 - My Points on Transaction,Edge Chromium 115,,,2023-08-12 13:30:33,2023-08-12 13:31:02,28.399s,FAILED
"callTestCase(findTestCase(""WLog-001""), [:], STOP_ON_FAILURE)",Edge Chromium 115,,,2023-08-12 13:30:34,2023-08-12 13:30:57,22.198s,PASSED
"mouseOver(findTestObject(""Home/Icon_User""))",Edge Chromium 115,,,2023-08-12 13:30:57,2023-08-12 13:30:58,0.998s,PASSED
delay(3),Edge Chromium 115,,,2023-08-12 13:30:58,2023-08-12 13:31:01,3.021s,PASSED
"click(findTestObject(""Home/Menu_My Account""), STOP_ON_FAILURE)",Edge Chromium 115,,,2023-08-12 13:31:01,2023-08-12 13:31:02,1.216s,FAILED
,,,,,,,
Test Cases/S009-Dashboard/WDash-010 - Invoice on Transaction,Edge Chromium 115,,,2023-08-12 13:31:02,2023-08-12 13:31:48,46.137s,PASSED
"callTestCase(findTestCase(""WLog-001""), [:], STOP_ON_FAILURE)",Edge Chromium 115,,,2023-08-12 13:31:03,2023-08-12 13:31:29,25.931s,PASSED
"mouseOver(findTestObject(""Home/Icon_User""))",Edge Chromium 115,,,2023-08-12 13:31:29,2023-08-12 13:31:30,1.030s,PASSED
delay(3),Edge Chromium 115,,,2023-08-12 13:31:30,2023-08-12 13:31:33,3.019s,PASSED
"click(findTestObject(""Home/Menu_My Account""), STOP_ON_FAILURE)",Edge Chromium 115,,,2023-08-12 13:31:33,2023-08-12 13:31:37,4.437s,PASSED
takeFullPageScreenshot(),Edge Chromium 115,,,2023-08-12 13:31:37,2023-08-12 13:31:39,2.184s,PASSED
"click(findTestObject(""Dashboard/Menu_Invoice""))",Edge Chromium 115,,,2023-08-12 13:31:39,2023-08-12 13:31:46,6.438s,PASSED
takeFullPageScreenshot(),Edge Chromium 115,,,2023-08-12 13:31:46,2023-08-12 13:31:47,1.013s,PASSED
closeBrowser(),Edge Chromium 115,,,2023-08-12 13:31:47,2023-08-12 13:31:48,1.119s,PASSED
