Suite/Test/Step Name,Browser,Description,Tag,Start time,End time,Duration,Status
Register Scenario,Edge Chromium 115,,,2023-08-12 04:14:05,2023-08-12 04:27:15,13m - 10.157s,PASSED
,,,,,,,
Test Cases/S001-Register/WReg-001 - Register with valid data,Edge Chromium 115,,,2023-08-12 04:14:06,2023-08-12 04:14:51,44.712s,PASSED
"openBrowser("""")",Edge Chromium 115,,,2023-08-12 04:14:08,2023-08-12 04:14:18,10.145s,PASSED
"navigateToUrl(""https://demo-app.online/"")",Edge Chromium 115,,,2023-08-12 04:14:18,2023-08-12 04:14:27,8.134s,PASSED
"click(findTestObject(""Home/Btn_Buat Akun""))",Edge Chromium 115,,,2023-08-12 04:14:27,2023-08-12 04:14:29,2.914s,PASSED
"setText(findTestObject(""Register/Field_Nama""), findTestData(""Register"").getValue(1, 1))",Edge Chromium 115,,,2023-08-12 04:14:29,2023-08-12 04:14:34,4.320s,PASSED
"setText(findTestObject(""Register/Field_Tanggal lahir""), findTestData(""Register"").getValue(2, 1))",Edge Chromium 115,,,2023-08-12 04:14:34,2023-08-12 04:14:36,2.318s,PASSED
"setText(findTestObject(""Register/Field_E-Mail""), findTestData(""Register"").getValue(3, 4))",Edge Chromium 115,,,2023-08-12 04:14:36,2023-08-12 04:14:38,1.451s,PASSED
"setText(findTestObject(""Register/Field_Whatsapp""), findTestData(""Register"").getValue(4, 1))",Edge Chromium 115,,,2023-08-12 04:14:38,2023-08-12 04:14:39,1.409s,PASSED
"setText(findTestObject(""Register/Field_Kata Sandi""), findTestData(""Register"").getValue(5, 1))",Edge Chromium 115,,,2023-08-12 04:14:39,2023-08-12 04:14:40,1.374s,PASSED
"setText(findTestObject(""Register/Field_Konfirmasi kata sandi""), findTestData(""Register"").getValue(5, 1))",Edge Chromium 115,,,2023-08-12 04:14:40,2023-08-12 04:14:42,1.333s,PASSED
"check(findTestObject(""Register/Field_Check SK""))",Edge Chromium 115,,,2023-08-12 04:14:42,2023-08-12 04:14:43,0.895s,PASSED
takeFullPageScreenshot(),Edge Chromium 115,,,2023-08-12 04:14:43,2023-08-12 04:14:45,2.172s,PASSED
"click(findTestObject(""Register/Btn_Daftar""))",Edge Chromium 115,,,2023-08-12 04:14:45,2023-08-12 04:14:49,3.822s,PASSED
takeFullPageScreenshot(),Edge Chromium 115,,,2023-08-12 04:14:49,2023-08-12 04:14:50,1.214s,PASSED
closeBrowser(),Edge Chromium 115,,,2023-08-12 04:14:50,2023-08-12 04:14:51,1.128s,PASSED
,,,,,,,
Test Cases/S001-Register/WReg-002 - Register with blank Nama,Edge Chromium 115,,,2023-08-12 04:14:51,2023-08-12 04:15:20,28.781s,PASSED
"openBrowser("""")",Edge Chromium 115,,,2023-08-12 04:14:52,2023-08-12 04:14:56,3.732s,PASSED
"navigateToUrl(""https://demo-app.online/"")",Edge Chromium 115,,,2023-08-12 04:14:56,2023-08-12 04:15:02,6.501s,PASSED
"click(findTestObject(""Home/Btn_Buat Akun""))",Edge Chromium 115,,,2023-08-12 04:15:02,2023-08-12 04:15:03,1.240s,PASSED
"setText(findTestObject(""Register/Field_Nama""), """")",Edge Chromium 115,,,2023-08-12 04:15:03,2023-08-12 04:15:06,2.876s,PASSED
"setText(findTestObject(""Register/Field_Tanggal lahir""), findTestData(""Register"").getValue(2, 1))",Edge Chromium 115,,,2023-08-12 04:15:06,2023-08-12 04:15:08,2.198s,PASSED
"setText(findTestObject(""Register/Field_E-Mail""), findTestData(""Register"").getValue(3, 4))",Edge Chromium 115,,,2023-08-12 04:15:08,2023-08-12 04:15:10,1.413s,PASSED
"setText(findTestObject(""Register/Field_Whatsapp""), findTestData(""Register"").getValue(4, 1))",Edge Chromium 115,,,2023-08-12 04:15:10,2023-08-12 04:15:11,1.408s,PASSED
"setText(findTestObject(""Register/Field_Kata Sandi""), findTestData(""Register"").getValue(5, 1))",Edge Chromium 115,,,2023-08-12 04:15:11,2023-08-12 04:15:12,1.213s,PASSED
"setText(findTestObject(""Register/Field_Konfirmasi kata sandi""), findTestData(""Register"").getValue(5, 1))",Edge Chromium 115,,,2023-08-12 04:15:12,2023-08-12 04:15:14,1.313s,PASSED
"check(findTestObject(""Register/Field_Check SK""))",Edge Chromium 115,,,2023-08-12 04:15:14,2023-08-12 04:15:14,0.611s,PASSED
takeFullPageScreenshot(),Edge Chromium 115,,,2023-08-12 04:15:14,2023-08-12 04:15:16,1.503s,PASSED
"click(findTestObject(""Register/Btn_Daftar""))",Edge Chromium 115,,,2023-08-12 04:15:16,2023-08-12 04:15:17,1.098s,PASSED
takeFullPageScreenshot(),Edge Chromium 115,,,2023-08-12 04:15:17,2023-08-12 04:15:19,1.699s,PASSED
closeBrowser(),Edge Chromium 115,,,2023-08-12 04:15:19,2023-08-12 04:15:20,1.092s,PASSED
,,,,,,,
Test Cases/S001-Register/WReg-003 - Register with blank TTL,Edge Chromium 115,,,2023-08-12 04:15:20,2023-08-12 04:15:51,30.943s,PASSED
"openBrowser("""")",Edge Chromium 115,,,2023-08-12 04:15:21,2023-08-12 04:15:25,3.803s,PASSED
"navigateToUrl(""https://demo-app.online/"")",Edge Chromium 115,,,2023-08-12 04:15:25,2023-08-12 04:15:32,7.509s,PASSED
"click(findTestObject(""Home/Btn_Buat Akun""))",Edge Chromium 115,,,2023-08-12 04:15:32,2023-08-12 04:15:35,2.641s,PASSED
"setText(findTestObject(""Register/Field_Nama""), findTestData(""Register"").getValue(1, 1))",Edge Chromium 115,,,2023-08-12 04:15:35,2023-08-12 04:15:36,1.410s,PASSED
"setText(findTestObject(""Register/Field_Tanggal lahir""), """")",Edge Chromium 115,,,2023-08-12 04:15:36,2023-08-12 04:15:38,1.046s,PASSED
"setText(findTestObject(""Register/Field_E-Mail""), findTestData(""Register"").getValue(3, 4))",Edge Chromium 115,,,2023-08-12 04:15:38,2023-08-12 04:15:39,1.635s,PASSED
"setText(findTestObject(""Register/Field_Whatsapp""), findTestData(""Register"").getValue(4, 1))",Edge Chromium 115,,,2023-08-12 04:15:39,2023-08-12 04:15:41,1.756s,PASSED
"setText(findTestObject(""Register/Field_Kata Sandi""), findTestData(""Register"").getValue(5, 1))",Edge Chromium 115,,,2023-08-12 04:15:41,2023-08-12 04:15:42,1.280s,PASSED
"setText(findTestObject(""Register/Field_Konfirmasi kata sandi""), findTestData(""Register"").getValue(5, 1))",Edge Chromium 115,,,2023-08-12 04:15:42,2023-08-12 04:15:43,1.213s,PASSED
"check(findTestObject(""Register/Field_Check SK""))",Edge Chromium 115,,,2023-08-12 04:15:43,2023-08-12 04:15:44,0.700s,PASSED
takeFullPageScreenshot(),Edge Chromium 115,,,2023-08-12 04:15:44,2023-08-12 04:15:46,1.509s,PASSED
"click(findTestObject(""Register/Btn_Daftar""))",Edge Chromium 115,,,2023-08-12 04:15:46,2023-08-12 04:15:48,2.451s,PASSED
takeFullPageScreenshot(),Edge Chromium 115,,,2023-08-12 04:15:48,2023-08-12 04:15:50,1.631s,PASSED
closeBrowser(),Edge Chromium 115,,,2023-08-12 04:15:50,2023-08-12 04:15:51,1.001s,PASSED
,,,,,,,
Test Cases/S001-Register/WReg-004 - Register with blank Email,Edge Chromium 115,,,2023-08-12 04:15:51,2023-08-12 04:16:20,29.532s,PASSED
"openBrowser("""")",Edge Chromium 115,,,2023-08-12 04:15:52,2023-08-12 04:15:56,4.041s,PASSED
"navigateToUrl(""https://demo-app.online/"")",Edge Chromium 115,,,2023-08-12 04:15:56,2023-08-12 04:16:03,7.534s,PASSED
"click(findTestObject(""Home/Btn_Buat Akun""))",Edge Chromium 115,,,2023-08-12 04:16:03,2023-08-12 04:16:04,1.270s,PASSED
"setText(findTestObject(""Register/Field_Nama""), findTestData(""Register"").getValue(1, 1))",Edge Chromium 115,,,2023-08-12 04:16:04,2023-08-12 04:16:07,2.982s,PASSED
"setText(findTestObject(""Register/Field_Tanggal lahir""), findTestData(""Register"").getValue(2, 1))",Edge Chromium 115,,,2023-08-12 04:16:07,2023-08-12 04:16:09,1.921s,PASSED
"setText(findTestObject(""Register/Field_E-Mail""), """")",Edge Chromium 115,,,2023-08-12 04:16:09,2023-08-12 04:16:10,0.952s,PASSED
"setText(findTestObject(""Register/Field_Whatsapp""), findTestData(""Register"").getValue(4, 1))",Edge Chromium 115,,,2023-08-12 04:16:10,2023-08-12 04:16:12,1.904s,PASSED
"setText(findTestObject(""Register/Field_Kata Sandi""), findTestData(""Register"").getValue(5, 1))",Edge Chromium 115,,,2023-08-12 04:16:12,2023-08-12 04:16:14,1.500s,PASSED
"setText(findTestObject(""Register/Field_Konfirmasi kata sandi""), findTestData(""Register"").getValue(5, 1))",Edge Chromium 115,,,2023-08-12 04:16:14,2023-08-12 04:16:15,1.222s,PASSED
"check(findTestObject(""Register/Field_Check SK""))",Edge Chromium 115,,,2023-08-12 04:16:15,2023-08-12 04:16:16,0.655s,PASSED
takeFullPageScreenshot(),Edge Chromium 115,,,2023-08-12 04:16:16,2023-08-12 04:16:17,1.544s,PASSED
"click(findTestObject(""Register/Btn_Daftar""))",Edge Chromium 115,,,2023-08-12 04:16:17,2023-08-12 04:16:18,0.776s,PASSED
takeFullPageScreenshot(),Edge Chromium 115,,,2023-08-12 04:16:18,2023-08-12 04:16:19,1.483s,PASSED
closeBrowser(),Edge Chromium 115,,,2023-08-12 04:16:19,2023-08-12 04:16:20,0.882s,PASSED
,,,,,,,
Test Cases/S001-Register/WReg-005 - Register with blank Whatsapp,Edge Chromium 115,,,2023-08-12 04:16:20,2023-08-12 04:16:54,33.686s,PASSED
"openBrowser("""")",Edge Chromium 115,,,2023-08-12 04:16:21,2023-08-12 04:16:25,4.118s,PASSED
"navigateToUrl(""https://demo-app.online/"")",Edge Chromium 115,,,2023-08-12 04:16:25,2023-08-12 04:16:37,11.783s,PASSED
"click(findTestObject(""Home/Btn_Buat Akun""))",Edge Chromium 115,,,2023-08-12 04:16:37,2023-08-12 04:16:40,2.600s,PASSED
"setText(findTestObject(""Register/Field_Nama""), findTestData(""Register"").getValue(1, 1))",Edge Chromium 115,,,2023-08-12 04:16:40,2023-08-12 04:16:41,1.558s,PASSED
"setText(findTestObject(""Register/Field_Tanggal lahir""), findTestData(""Register"").getValue(2, 1))",Edge Chromium 115,,,2023-08-12 04:16:41,2023-08-12 04:16:43,1.873s,PASSED
"setText(findTestObject(""Register/Field_E-Mail""), findTestData(""Register"").getValue(3, 4))",Edge Chromium 115,,,2023-08-12 04:16:43,2023-08-12 04:16:44,1.255s,PASSED
"setText(findTestObject(""Register/Field_Whatsapp""), """")",Edge Chromium 115,,,2023-08-12 04:16:44,2023-08-12 04:16:45,1.032s,PASSED
"setText(findTestObject(""Register/Field_Kata Sandi""), findTestData(""Register"").getValue(5, 1))",Edge Chromium 115,,,2023-08-12 04:16:45,2023-08-12 04:16:47,1.589s,PASSED
"setText(findTestObject(""Register/Field_Konfirmasi kata sandi""), findTestData(""Register"").getValue(5, 1))",Edge Chromium 115,,,2023-08-12 04:16:47,2023-08-12 04:16:48,1.403s,PASSED
"check(findTestObject(""Register/Field_Check SK""))",Edge Chromium 115,,,2023-08-12 04:16:48,2023-08-12 04:16:49,0.674s,PASSED
takeFullPageScreenshot(),Edge Chromium 115,,,2023-08-12 04:16:49,2023-08-12 04:16:51,1.664s,PASSED
"click(findTestObject(""Register/Btn_Daftar""))",Edge Chromium 115,,,2023-08-12 04:16:51,2023-08-12 04:16:51,0.708s,PASSED
takeFullPageScreenshot(),Edge Chromium 115,,,2023-08-12 04:16:51,2023-08-12 04:16:53,1.525s,PASSED
closeBrowser(),Edge Chromium 115,,,2023-08-12 04:16:53,2023-08-12 04:16:54,0.980s,PASSED
,,,,,,,
Test Cases/S001-Register/WReg-006 - Register with Password and Confirmation Password not same,Edge Chromium 115,,,2023-08-12 04:16:54,2023-08-12 04:17:28,34.425s,PASSED
"openBrowser("""")",Edge Chromium 115,,,2023-08-12 04:16:55,2023-08-12 04:16:59,3.789s,PASSED
"navigateToUrl(""https://demo-app.online/"")",Edge Chromium 115,,,2023-08-12 04:16:59,2023-08-12 04:17:08,9.751s,PASSED
"click(findTestObject(""Home/Btn_Buat Akun""))",Edge Chromium 115,,,2023-08-12 04:17:08,2023-08-12 04:17:12,3.561s,PASSED
"setText(findTestObject(""Register/Field_Nama""), findTestData(""Register"").getValue(1, 1))",Edge Chromium 115,,,2023-08-12 04:17:12,2023-08-12 04:17:14,1.880s,PASSED
"setText(findTestObject(""Register/Field_Tanggal lahir""), findTestData(""Register"").getValue(2, 1))",Edge Chromium 115,,,2023-08-12 04:17:14,2023-08-12 04:17:16,1.876s,PASSED
"setText(findTestObject(""Register/Field_E-Mail""), findTestData(""Register"").getValue(3, 4))",Edge Chromium 115,,,2023-08-12 04:17:16,2023-08-12 04:17:17,1.718s,PASSED
"setText(findTestObject(""Register/Field_Whatsapp""), findTestData(""Register"").getValue(4, 1))",Edge Chromium 115,,,2023-08-12 04:17:17,2023-08-12 04:17:19,1.258s,PASSED
"setText(findTestObject(""Register/Field_Kata Sandi""), findTestData(""Register"").getValue(5, 1))",Edge Chromium 115,,,2023-08-12 04:17:19,2023-08-12 04:17:20,1.334s,PASSED
"setText(findTestObject(""Register/Field_Konfirmasi kata sandi""), findTestData(""Register"").getValue(5, 2))",Edge Chromium 115,,,2023-08-12 04:17:20,2023-08-12 04:17:21,1.303s,PASSED
"check(findTestObject(""Register/Field_Check SK""))",Edge Chromium 115,,,2023-08-12 04:17:21,2023-08-12 04:17:22,0.627s,PASSED
takeFullPageScreenshot(),Edge Chromium 115,,,2023-08-12 04:17:22,2023-08-12 04:17:23,1.471s,PASSED
"click(findTestObject(""Register/Btn_Daftar""))",Edge Chromium 115,,,2023-08-12 04:17:23,2023-08-12 04:17:26,2.463s,PASSED
takeFullPageScreenshot(),Edge Chromium 115,,,2023-08-12 04:17:26,2023-08-12 04:17:27,1.508s,PASSED
closeBrowser(),Edge Chromium 115,,,2023-08-12 04:17:27,2023-08-12 04:17:28,1.074s,PASSED
,,,,,,,
Test Cases/S001-Register/WReg-007 - Register with uncheck SK,Edge Chromium 115,,,2023-08-12 04:17:28,2023-08-12 04:18:06,37.259s,PASSED
"openBrowser("""")",Edge Chromium 115,,,2023-08-12 04:17:29,2023-08-12 04:17:34,4.729s,PASSED
"navigateToUrl(""https://demo-app.online/"")",Edge Chromium 115,,,2023-08-12 04:17:34,2023-08-12 04:17:47,12.681s,PASSED
"click(findTestObject(""Home/Btn_Buat Akun""))",Edge Chromium 115,,,2023-08-12 04:17:47,2023-08-12 04:17:51,4.371s,PASSED
"setText(findTestObject(""Register/Field_Nama""), findTestData(""Register"").getValue(1, 1))",Edge Chromium 115,,,2023-08-12 04:17:51,2023-08-12 04:17:54,3.051s,PASSED
"setText(findTestObject(""Register/Field_Tanggal lahir""), findTestData(""Register"").getValue(2, 1))",Edge Chromium 115,,,2023-08-12 04:17:54,2023-08-12 04:17:56,1.883s,PASSED
"setText(findTestObject(""Register/Field_E-Mail""), findTestData(""Register"").getValue(3, 4))",Edge Chromium 115,,,2023-08-12 04:17:56,2023-08-12 04:17:57,1.306s,PASSED
"setText(findTestObject(""Register/Field_Whatsapp""), findTestData(""Register"").getValue(4, 1))",Edge Chromium 115,,,2023-08-12 04:17:57,2023-08-12 04:17:59,1.311s,PASSED
"setText(findTestObject(""Register/Field_Kata Sandi""), findTestData(""Register"").getValue(5, 1))",Edge Chromium 115,,,2023-08-12 04:17:59,2023-08-12 04:18:00,1.195s,PASSED
"setText(findTestObject(""Register/Field_Konfirmasi kata sandi""), findTestData(""Register"").getValue(5, 1))",Edge Chromium 115,,,2023-08-12 04:18:00,2023-08-12 04:18:01,1.256s,PASSED
takeFullPageScreenshot(),Edge Chromium 115,,,2023-08-12 04:18:01,2023-08-12 04:18:02,1.423s,PASSED
"click(findTestObject(""Register/Btn_Daftar""))",Edge Chromium 115,,,2023-08-12 04:18:02,2023-08-12 04:18:03,0.722s,PASSED
takeFullPageScreenshot(),Edge Chromium 115,,,2023-08-12 04:18:03,2023-08-12 04:18:05,1.512s,PASSED
closeBrowser(),Edge Chromium 115,,,2023-08-12 04:18:05,2023-08-12 04:18:06,0.968s,PASSED
,,,,,,,
Test Cases/S001-Register/WReg-008 - Register with age less then 7 years old,Edge Chromium 115,,,2023-08-12 04:18:06,2023-08-12 04:18:42,36.092s,PASSED
"openBrowser("""")",Edge Chromium 115,,,2023-08-12 04:18:06,2023-08-12 04:18:11,4.501s,PASSED
"navigateToUrl(""https://demo-app.online/"")",Edge Chromium 115,,,2023-08-12 04:18:11,2023-08-12 04:18:21,9.692s,PASSED
"click(findTestObject(""Home/Btn_Buat Akun""))",Edge Chromium 115,,,2023-08-12 04:18:21,2023-08-12 04:18:22,1.555s,PASSED
"setText(findTestObject(""Register/Field_Nama""), findTestData(""Register"").getValue(1, 1))",Edge Chromium 115,,,2023-08-12 04:18:22,2023-08-12 04:18:25,2.932s,PASSED
"setText(findTestObject(""Register/Field_Tanggal lahir""), findTestData(""Register"").getValue(2, 2))",Edge Chromium 115,,,2023-08-12 04:18:25,2023-08-12 04:18:27,2.017s,PASSED
"setText(findTestObject(""Register/Field_E-Mail""), findTestData(""Register"").getValue(3, 4))",Edge Chromium 115,,,2023-08-12 04:18:27,2023-08-12 04:18:29,1.463s,PASSED
"setText(findTestObject(""Register/Field_Whatsapp""), findTestData(""Register"").getValue(4, 1))",Edge Chromium 115,,,2023-08-12 04:18:29,2023-08-12 04:18:30,1.394s,PASSED
"setText(findTestObject(""Register/Field_Kata Sandi""), findTestData(""Register"").getValue(5, 1))",Edge Chromium 115,,,2023-08-12 04:18:30,2023-08-12 04:18:31,1.145s,PASSED
"setText(findTestObject(""Register/Field_Konfirmasi kata sandi""), findTestData(""Register"").getValue(5, 1))",Edge Chromium 115,,,2023-08-12 04:18:31,2023-08-12 04:18:32,1.254s,PASSED
"check(findTestObject(""Register/Field_Check SK""))",Edge Chromium 115,,,2023-08-12 04:18:32,2023-08-12 04:18:33,0.644s,PASSED
takeFullPageScreenshot(),Edge Chromium 115,,,2023-08-12 04:18:33,2023-08-12 04:18:35,1.461s,PASSED
"click(findTestObject(""Register/Btn_Daftar""))",Edge Chromium 115,,,2023-08-12 04:18:35,2023-08-12 04:18:38,3.706s,PASSED
takeFullPageScreenshot(),Edge Chromium 115,,,2023-08-12 04:18:38,2023-08-12 04:18:40,1.589s,PASSED
closeBrowser(),Edge Chromium 115,,,2023-08-12 04:18:40,2023-08-12 04:18:42,1.928s,PASSED
,,,,,,,
Test Cases/S001-Register/WReg-009 - Register with At sign not contain in Email,Edge Chromium 115,,,2023-08-12 04:18:42,2023-08-12 04:19:20,38.697s,PASSED
"openBrowser("""")",Edge Chromium 115,,,2023-08-12 04:18:43,2023-08-12 04:18:48,4.893s,PASSED
"navigateToUrl(""https://demo-app.online/"")",Edge Chromium 115,,,2023-08-12 04:18:48,2023-08-12 04:19:05,17.299s,PASSED
"click(findTestObject(""Home/Btn_Buat Akun""))",Edge Chromium 115,,,2023-08-12 04:19:05,2023-08-12 04:19:06,1.224s,PASSED
"setText(findTestObject(""Register/Field_Nama""), findTestData(""Register"").getValue(1, 1))",Edge Chromium 115,,,2023-08-12 04:19:06,2023-08-12 04:19:09,2.578s,PASSED
"setText(findTestObject(""Register/Field_Tanggal lahir""), findTestData(""Register"").getValue(2, 1))",Edge Chromium 115,,,2023-08-12 04:19:09,2023-08-12 04:19:10,1.827s,PASSED
"setText(findTestObject(""Register/Field_E-Mail""), findTestData(""Register"").getValue(3, 2))",Edge Chromium 115,,,2023-08-12 04:19:10,2023-08-12 04:19:12,1.206s,PASSED
"setText(findTestObject(""Register/Field_Whatsapp""), findTestData(""Register"").getValue(4, 1))",Edge Chromium 115,,,2023-08-12 04:19:12,2023-08-12 04:19:13,1.351s,PASSED
"setText(findTestObject(""Register/Field_Kata Sandi""), findTestData(""Register"").getValue(5, 1))",Edge Chromium 115,,,2023-08-12 04:19:13,2023-08-12 04:19:14,1.120s,PASSED
"setText(findTestObject(""Register/Field_Konfirmasi kata sandi""), findTestData(""Register"").getValue(5, 1))",Edge Chromium 115,,,2023-08-12 04:19:14,2023-08-12 04:19:15,1.148s,PASSED
"check(findTestObject(""Register/Field_Check SK""))",Edge Chromium 115,,,2023-08-12 04:19:15,2023-08-12 04:19:16,0.581s,PASSED
takeFullPageScreenshot(),Edge Chromium 115,,,2023-08-12 04:19:16,2023-08-12 04:19:17,1.423s,PASSED
"click(findTestObject(""Register/Btn_Daftar""))",Edge Chromium 115,,,2023-08-12 04:19:17,2023-08-12 04:19:18,0.727s,PASSED
takeFullPageScreenshot(),Edge Chromium 115,,,2023-08-12 04:19:18,2023-08-12 04:19:19,1.467s,PASSED
closeBrowser(),Edge Chromium 115,,,2023-08-12 04:19:19,2023-08-12 04:19:20,1.006s,PASSED
,,,,,,,
Test Cases/S001-Register/WReg-010 - Register with input length on Whatsapp less then 10,Edge Chromium 115,,,2023-08-12 04:19:20,2023-08-12 04:20:02,41.382s,PASSED
"openBrowser("""")",Edge Chromium 115,,,2023-08-12 04:19:22,2023-08-12 04:19:26,4.199s,PASSED
"navigateToUrl(""https://demo-app.online/"")",Edge Chromium 115,,,2023-08-12 04:19:26,2023-08-12 04:19:42,15.802s,PASSED
"click(findTestObject(""Home/Btn_Buat Akun""))",Edge Chromium 115,,,2023-08-12 04:19:42,2023-08-12 04:19:44,2.552s,PASSED
"setText(findTestObject(""Register/Field_Nama""), findTestData(""Register"").getValue(1, 1))",Edge Chromium 115,,,2023-08-12 04:19:44,2023-08-12 04:19:46,1.391s,PASSED
"setText(findTestObject(""Register/Field_Tanggal lahir""), findTestData(""Register"").getValue(2, 1))",Edge Chromium 115,,,2023-08-12 04:19:46,2023-08-12 04:19:48,1.850s,PASSED
"setText(findTestObject(""Register/Field_E-Mail""), findTestData(""Register"").getValue(3, 4))",Edge Chromium 115,,,2023-08-12 04:19:48,2023-08-12 04:19:49,1.234s,PASSED
"setText(findTestObject(""Register/Field_Whatsapp""), findTestData(""Register"").getValue(4, 2))",Edge Chromium 115,,,2023-08-12 04:19:49,2023-08-12 04:19:50,1.412s,PASSED
"setText(findTestObject(""Register/Field_Kata Sandi""), findTestData(""Register"").getValue(5, 1))",Edge Chromium 115,,,2023-08-12 04:19:50,2023-08-12 04:19:52,1.343s,PASSED
"setText(findTestObject(""Register/Field_Konfirmasi kata sandi""), findTestData(""Register"").getValue(5, 1))",Edge Chromium 115,,,2023-08-12 04:19:52,2023-08-12 04:19:53,1.371s,PASSED
"check(findTestObject(""Register/Field_Check SK""))",Edge Chromium 115,,,2023-08-12 04:19:53,2023-08-12 04:19:54,0.681s,PASSED
takeFullPageScreenshot(),Edge Chromium 115,,,2023-08-12 04:19:54,2023-08-12 04:19:55,1.459s,PASSED
"click(findTestObject(""Register/Btn_Daftar""))",Edge Chromium 115,,,2023-08-12 04:19:55,2023-08-12 04:20:00,4.674s,PASSED
takeFullPageScreenshot(),Edge Chromium 115,,,2023-08-12 04:20:00,2023-08-12 04:20:01,1.143s,PASSED
closeBrowser(),Edge Chromium 115,,,2023-08-12 04:20:01,2023-08-12 04:20:02,0.954s,PASSED
,,,,,,,
Test Cases/S001-Register/WReg-011 - Register with input length on Whatsapp field more then 12,Edge Chromium 115,,,2023-08-12 04:20:02,2023-08-12 04:21:11,1m - 8.986s,PASSED
"openBrowser("""")",Edge Chromium 115,,,2023-08-12 04:20:03,2023-08-12 04:20:08,5.739s,PASSED
"navigateToUrl(""https://demo-app.online/"")",Edge Chromium 115,,,2023-08-12 04:20:08,2023-08-12 04:20:30,21.716s,PASSED
"click(findTestObject(""Home/Btn_Buat Akun""))",Edge Chromium 115,,,2023-08-12 04:20:30,2023-08-12 04:20:37,7.093s,PASSED
"setText(findTestObject(""Register/Field_Nama""), findTestData(""Register"").getValue(1, 1))",Edge Chromium 115,,,2023-08-12 04:20:37,2023-08-12 04:20:53,15.622s,PASSED
"setText(findTestObject(""Register/Field_Tanggal lahir""), findTestData(""Register"").getValue(2, 1))",Edge Chromium 115,,,2023-08-12 04:20:53,2023-08-12 04:20:55,1.813s,PASSED
"setText(findTestObject(""Register/Field_E-Mail""), findTestData(""Register"").getValue(3, 4))",Edge Chromium 115,,,2023-08-12 04:20:55,2023-08-12 04:20:56,1.233s,PASSED
"setText(findTestObject(""Register/Field_Whatsapp""), findTestData(""Register"").getValue(4, 3))",Edge Chromium 115,,,2023-08-12 04:20:56,2023-08-12 04:20:57,1.283s,PASSED
"setText(findTestObject(""Register/Field_Kata Sandi""), findTestData(""Register"").getValue(5, 1))",Edge Chromium 115,,,2023-08-12 04:20:57,2023-08-12 04:20:58,1.138s,PASSED
"setText(findTestObject(""Register/Field_Konfirmasi kata sandi""), findTestData(""Register"").getValue(5, 1))",Edge Chromium 115,,,2023-08-12 04:20:58,2023-08-12 04:20:59,1.136s,PASSED
"check(findTestObject(""Register/Field_Check SK""))",Edge Chromium 115,,,2023-08-12 04:20:59,2023-08-12 04:21:00,0.603s,PASSED
takeFullPageScreenshot(),Edge Chromium 115,,,2023-08-12 04:21:00,2023-08-12 04:21:02,1.482s,PASSED
"click(findTestObject(""Register/Btn_Daftar""))",Edge Chromium 115,,,2023-08-12 04:21:02,2023-08-12 04:21:08,6.877s,PASSED
takeFullPageScreenshot(),Edge Chromium 115,,,2023-08-12 04:21:08,2023-08-12 04:21:10,1.433s,PASSED
closeBrowser(),Edge Chromium 115,,,2023-08-12 04:21:10,2023-08-12 04:21:11,1.027s,PASSED
,,,,,,,
Test Cases/S001-Register/WReg-012 - Register with input length on Password field less then 8,Edge Chromium 115,,,2023-08-12 04:21:11,2023-08-12 04:21:59,48.168s,PASSED
"openBrowser("""")",Edge Chromium 115,,,2023-08-12 04:21:12,2023-08-12 04:21:18,5.978s,PASSED
"navigateToUrl(""https://demo-app.online/"")",Edge Chromium 115,,,2023-08-12 04:21:18,2023-08-12 04:21:41,22.938s,PASSED
"click(findTestObject(""Home/Btn_Buat Akun""))",Edge Chromium 115,,,2023-08-12 04:21:41,2023-08-12 04:21:44,2.963s,PASSED
"setText(findTestObject(""Register/Field_Nama""), findTestData(""Register"").getValue(1, 1))",Edge Chromium 115,,,2023-08-12 04:21:44,2023-08-12 04:21:45,1.383s,PASSED
"setText(findTestObject(""Register/Field_Tanggal lahir""), findTestData(""Register"").getValue(2, 1))",Edge Chromium 115,,,2023-08-12 04:21:45,2023-08-12 04:21:47,1.866s,PASSED
"setText(findTestObject(""Register/Field_E-Mail""), findTestData(""Register"").getValue(3, 1))",Edge Chromium 115,,,2023-08-12 04:21:47,2023-08-12 04:21:48,1.314s,PASSED
"setText(findTestObject(""Register/Field_Whatsapp""), findTestData(""Register"").getValue(4, 1))",Edge Chromium 115,,,2023-08-12 04:21:48,2023-08-12 04:21:49,1.345s,PASSED
"setText(findTestObject(""Register/Field_Kata Sandi""), findTestData(""Register"").getValue(5, 2))",Edge Chromium 115,,,2023-08-12 04:21:49,2023-08-12 04:21:51,1.135s,PASSED
"setText(findTestObject(""Register/Field_Konfirmasi kata sandi""), findTestData(""Register"").getValue(5, 2))",Edge Chromium 115,,,2023-08-12 04:21:51,2023-08-12 04:21:52,1.206s,PASSED
"check(findTestObject(""Register/Field_Check SK""))",Edge Chromium 115,,,2023-08-12 04:21:52,2023-08-12 04:21:52,0.664s,PASSED
takeFullPageScreenshot(),Edge Chromium 115,,,2023-08-12 04:21:52,2023-08-12 04:21:54,1.425s,PASSED
"click(findTestObject(""Register/Btn_Daftar""))",Edge Chromium 115,,,2023-08-12 04:21:54,2023-08-12 04:21:57,2.668s,PASSED
takeFullPageScreenshot(),Edge Chromium 115,,,2023-08-12 04:21:57,2023-08-12 04:21:58,1.456s,PASSED
closeBrowser(),Edge Chromium 115,,,2023-08-12 04:21:58,2023-08-12 04:21:59,1.029s,PASSED
,,,,,,,
Test Cases/S001-Register/WReg-013 - Register with existing Email,Edge Chromium 115,,,2023-08-12 04:21:59,2023-08-12 04:22:41,41.696s,PASSED
"openBrowser("""")",Edge Chromium 115,,,2023-08-12 04:22:00,2023-08-12 04:22:05,5.461s,PASSED
"navigateToUrl(""https://demo-app.online/"")",Edge Chromium 115,,,2023-08-12 04:22:05,2023-08-12 04:22:15,9.332s,PASSED
"click(findTestObject(""Home/Btn_Buat Akun""))",Edge Chromium 115,,,2023-08-12 04:22:15,2023-08-12 04:22:18,2.942s,PASSED
"setText(findTestObject(""Register/Field_Nama""), findTestData(""Register"").getValue(1, 1))",Edge Chromium 115,,,2023-08-12 04:22:18,2023-08-12 04:22:19,1.382s,PASSED
"setText(findTestObject(""Register/Field_Tanggal lahir""), findTestData(""Register"").getValue(2, 1))",Edge Chromium 115,,,2023-08-12 04:22:19,2023-08-12 04:22:21,1.875s,PASSED
"setText(findTestObject(""Register/Field_E-Mail""), findTestData(""Register"").getValue(3, 1))",Edge Chromium 115,,,2023-08-12 04:22:21,2023-08-12 04:22:22,1.170s,PASSED
"setText(findTestObject(""Register/Field_Whatsapp""), findTestData(""Register"").getValue(4, 1))",Edge Chromium 115,,,2023-08-12 04:22:22,2023-08-12 04:22:24,1.610s,PASSED
"setText(findTestObject(""Register/Field_Kata Sandi""), findTestData(""Register"").getValue(5, 1))",Edge Chromium 115,,,2023-08-12 04:22:24,2023-08-12 04:22:25,1.247s,PASSED
"setText(findTestObject(""Register/Field_Konfirmasi kata sandi""), findTestData(""Register"").getValue(5, 1))",Edge Chromium 115,,,2023-08-12 04:22:25,2023-08-12 04:22:26,1.200s,PASSED
"check(findTestObject(""Register/Field_Check SK""))",Edge Chromium 115,,,2023-08-12 04:22:26,2023-08-12 04:22:27,0.670s,PASSED
takeFullPageScreenshot(),Edge Chromium 115,,,2023-08-12 04:22:27,2023-08-12 04:22:28,1.560s,PASSED
"click(findTestObject(""Register/Btn_Daftar""))",Edge Chromium 115,,,2023-08-12 04:22:28,2023-08-12 04:22:38,10.006s,PASSED
takeFullPageScreenshot(),Edge Chromium 115,,,2023-08-12 04:22:38,2023-08-12 04:22:40,1.472s,PASSED
closeBrowser(),Edge Chromium 115,,,2023-08-12 04:22:40,2023-08-12 04:22:41,0.984s,PASSED
,,,,,,,
Test Cases/S001-Register/WReg-014 - Register with Google account,Edge Chromium 115,,,2023-08-12 04:22:41,2023-08-12 04:23:06,25.213s,PASSED
"openBrowser("""")",Edge Chromium 115,,,2023-08-12 04:22:42,2023-08-12 04:22:46,4.346s,PASSED
"navigateToUrl(""https://demo-app.online/"")",Edge Chromium 115,,,2023-08-12 04:22:46,2023-08-12 04:22:54,8.371s,PASSED
"click(findTestObject(""Home/Btn_Buat Akun""))",Edge Chromium 115,,,2023-08-12 04:22:54,2023-08-12 04:22:57,2.657s,PASSED
takeFullPageScreenshot(),Edge Chromium 115,,,2023-08-12 04:22:57,2023-08-12 04:22:58,1.477s,PASSED
"click(findTestObject(""Register/Btn_Sign-in With Google""))",Edge Chromium 115,,,2023-08-12 04:22:58,2023-08-12 04:23:04,5.784s,PASSED
takeFullPageScreenshot(),Edge Chromium 115,,,2023-08-12 04:23:04,2023-08-12 04:23:05,0.849s,PASSED
closeBrowser(),Edge Chromium 115,,,2023-08-12 04:23:05,2023-08-12 04:23:06,0.917s,PASSED
,,,,,,,
Test Cases/S001-Register/WReg-015 - Register with Whatsapp field negative number,Edge Chromium 115,,,2023-08-12 04:23:06,2023-08-12 04:23:53,46.829s,PASSED
"openBrowser("""")",Edge Chromium 115,,,2023-08-12 04:23:07,2023-08-12 04:23:11,3.780s,PASSED
"navigateToUrl(""https://demo-app.online/"")",Edge Chromium 115,,,2023-08-12 04:23:11,2023-08-12 04:23:35,24.354s,PASSED
"click(findTestObject(""Home/Btn_Buat Akun""))",Edge Chromium 115,,,2023-08-12 04:23:35,2023-08-12 04:23:38,2.629s,PASSED
"setText(findTestObject(""Register/Field_Nama""), findTestData(""Register"").getValue(1, 1))",Edge Chromium 115,,,2023-08-12 04:23:38,2023-08-12 04:23:39,1.343s,PASSED
"setText(findTestObject(""Register/Field_Tanggal lahir""), findTestData(""Register"").getValue(2, 1))",Edge Chromium 115,,,2023-08-12 04:23:39,2023-08-12 04:23:41,2.042s,PASSED
"setText(findTestObject(""Register/Field_E-Mail""), findTestData(""Register"").getValue(3, 1))",Edge Chromium 115,,,2023-08-12 04:23:41,2023-08-12 04:23:42,1.254s,PASSED
"setText(findTestObject(""Register/Field_Whatsapp""), findTestData(""Register"").getValue(4, 4))",Edge Chromium 115,,,2023-08-12 04:23:42,2023-08-12 04:23:43,1.292s,PASSED
"setText(findTestObject(""Register/Field_Kata Sandi""), findTestData(""Register"").getValue(5, 1))",Edge Chromium 115,,,2023-08-12 04:23:43,2023-08-12 04:23:45,1.190s,PASSED
"setText(findTestObject(""Register/Field_Konfirmasi kata sandi""), findTestData(""Register"").getValue(5, 1))",Edge Chromium 115,,,2023-08-12 04:23:45,2023-08-12 04:23:46,1.224s,PASSED
"check(findTestObject(""Register/Field_Check SK""))",Edge Chromium 115,,,2023-08-12 04:23:46,2023-08-12 04:23:46,0.611s,PASSED
takeFullPageScreenshot(),Edge Chromium 115,,,2023-08-12 04:23:46,2023-08-12 04:23:48,1.491s,PASSED
"click(findTestObject(""Register/Btn_Daftar""))",Edge Chromium 115,,,2023-08-12 04:23:48,2023-08-12 04:23:50,2.426s,PASSED
takeFullPageScreenshot(),Edge Chromium 115,,,2023-08-12 04:23:50,2023-08-12 04:23:52,1.466s,PASSED
closeBrowser(),Edge Chromium 115,,,2023-08-12 04:23:52,2023-08-12 04:23:53,0.950s,PASSED
,,,,,,,
Test Cases/S001-Register/WReg-016 - Register with blank Password,Edge Chromium 115,,,2023-08-12 04:23:53,2023-08-12 04:24:28,34.923s,PASSED
"openBrowser("""")",Edge Chromium 115,,,2023-08-12 04:23:54,2023-08-12 04:23:58,4.319s,PASSED
"navigateToUrl(""https://demo-app.online/"")",Edge Chromium 115,,,2023-08-12 04:23:58,2023-08-12 04:24:10,12.148s,PASSED
"click(findTestObject(""Home/Btn_Buat Akun""))",Edge Chromium 115,,,2023-08-12 04:24:10,2023-08-12 04:24:14,3.861s,PASSED
"setText(findTestObject(""Register/Field_Nama""), findTestData(""Register"").getValue(1, 1))",Edge Chromium 115,,,2023-08-12 04:24:14,2023-08-12 04:24:16,1.298s,PASSED
"setText(findTestObject(""Register/Field_Tanggal lahir""), findTestData(""Register"").getValue(2, 1))",Edge Chromium 115,,,2023-08-12 04:24:16,2023-08-12 04:24:18,2.134s,PASSED
"setText(findTestObject(""Register/Field_E-Mail""), findTestData(""Register"").getValue(3, 1))",Edge Chromium 115,,,2023-08-12 04:24:18,2023-08-12 04:24:19,1.254s,PASSED
"setText(findTestObject(""Register/Field_Whatsapp""), findTestData(""Register"").getValue(4, 1))",Edge Chromium 115,,,2023-08-12 04:24:19,2023-08-12 04:24:20,1.368s,PASSED
"setText(findTestObject(""Register/Field_Kata Sandi""), """")",Edge Chromium 115,,,2023-08-12 04:24:20,2023-08-12 04:24:21,0.946s,PASSED
"setText(findTestObject(""Register/Field_Konfirmasi kata sandi""), """")",Edge Chromium 115,,,2023-08-12 04:24:21,2023-08-12 04:24:22,1.030s,PASSED
"check(findTestObject(""Register/Field_Check SK""))",Edge Chromium 115,,,2023-08-12 04:24:22,2023-08-12 04:24:23,0.748s,PASSED
takeFullPageScreenshot(),Edge Chromium 115,,,2023-08-12 04:24:23,2023-08-12 04:24:25,1.484s,PASSED
"click(findTestObject(""Register/Btn_Daftar""))",Edge Chromium 115,,,2023-08-12 04:24:25,2023-08-12 04:24:25,0.816s,PASSED
takeFullPageScreenshot(),Edge Chromium 115,,,2023-08-12 04:24:25,2023-08-12 04:24:27,1.451s,PASSED
closeBrowser(),Edge Chromium 115,,,2023-08-12 04:24:27,2023-08-12 04:24:28,0.942s,PASSED
,,,,,,,
Test Cases/S001-Register/WReg-017 - Register with Nama contain symbol,Edge Chromium 115,,,2023-08-12 04:24:28,2023-08-12 04:25:01,33.132s,PASSED
"openBrowser("""")",Edge Chromium 115,,,2023-08-12 04:24:29,2023-08-12 04:24:33,4.245s,PASSED
"navigateToUrl(""https://demo-app.online/"")",Edge Chromium 115,,,2023-08-12 04:24:33,2023-08-12 04:24:42,8.652s,PASSED
"click(findTestObject(""Home/Btn_Buat Akun""))",Edge Chromium 115,,,2023-08-12 04:24:42,2023-08-12 04:24:43,1.450s,PASSED
"setText(findTestObject(""Register/Field_Nama""), findTestData(""Register"").getValue(1, 2))",Edge Chromium 115,,,2023-08-12 04:24:43,2023-08-12 04:24:46,2.908s,PASSED
"setText(findTestObject(""Register/Field_Tanggal lahir""), findTestData(""Register"").getValue(2, 1))",Edge Chromium 115,,,2023-08-12 04:24:46,2023-08-12 04:24:48,1.926s,PASSED
"setText(findTestObject(""Register/Field_E-Mail""), findTestData(""Register"").getValue(3, 4))",Edge Chromium 115,,,2023-08-12 04:24:48,2023-08-12 04:24:49,1.243s,PASSED
"setText(findTestObject(""Register/Field_Whatsapp""), findTestData(""Register"").getValue(4, 1))",Edge Chromium 115,,,2023-08-12 04:24:49,2023-08-12 04:24:50,1.298s,PASSED
"setText(findTestObject(""Register/Field_Kata Sandi""), findTestData(""Register"").getValue(5, 1))",Edge Chromium 115,,,2023-08-12 04:24:50,2023-08-12 04:24:51,1.125s,PASSED
"setText(findTestObject(""Register/Field_Konfirmasi kata sandi""), findTestData(""Register"").getValue(5, 1))",Edge Chromium 115,,,2023-08-12 04:24:51,2023-08-12 04:24:53,1.425s,PASSED
"check(findTestObject(""Register/Field_Check SK""))",Edge Chromium 115,,,2023-08-12 04:24:53,2023-08-12 04:24:54,0.652s,PASSED
takeFullPageScreenshot(),Edge Chromium 115,,,2023-08-12 04:24:54,2023-08-12 04:24:55,1.593s,PASSED
"click(findTestObject(""Register/Btn_Daftar""))",Edge Chromium 115,,,2023-08-12 04:24:55,2023-08-12 04:24:59,3.696s,PASSED
takeFullPageScreenshot(),Edge Chromium 115,,,2023-08-12 04:24:59,2023-08-12 04:25:00,1.112s,PASSED
closeBrowser(),Edge Chromium 115,,,2023-08-12 04:25:00,2023-08-12 04:25:01,0.955s,PASSED
,,,,,,,
Test Cases/S001-Register/WReg-018 - Register with Nama contain number,Edge Chromium 115,,,2023-08-12 04:25:01,2023-08-12 04:25:45,44.370s,PASSED
"openBrowser("""")",Edge Chromium 115,,,2023-08-12 04:25:02,2023-08-12 04:25:07,4.965s,PASSED
"navigateToUrl(""https://demo-app.online/"")",Edge Chromium 115,,,2023-08-12 04:25:07,2023-08-12 04:25:24,17.297s,PASSED
"click(findTestObject(""Home/Btn_Buat Akun""))",Edge Chromium 115,,,2023-08-12 04:25:24,2023-08-12 04:25:27,3.362s,PASSED
"setText(findTestObject(""Register/Field_Nama""), findTestData(""Register"").getValue(1, 3))",Edge Chromium 115,,,2023-08-12 04:25:27,2023-08-12 04:25:29,1.311s,PASSED
"setText(findTestObject(""Register/Field_Tanggal lahir""), findTestData(""Register"").getValue(2, 1))",Edge Chromium 115,,,2023-08-12 04:25:29,2023-08-12 04:25:31,1.879s,PASSED
"setText(findTestObject(""Register/Field_E-Mail""), findTestData(""Register"").getValue(3, 4))",Edge Chromium 115,,,2023-08-12 04:25:31,2023-08-12 04:25:32,1.292s,PASSED
"setText(findTestObject(""Register/Field_Whatsapp""), findTestData(""Register"").getValue(4, 1))",Edge Chromium 115,,,2023-08-12 04:25:32,2023-08-12 04:25:33,1.289s,PASSED
"setText(findTestObject(""Register/Field_Kata Sandi""), findTestData(""Register"").getValue(5, 1))",Edge Chromium 115,,,2023-08-12 04:25:33,2023-08-12 04:25:34,1.158s,PASSED
"setText(findTestObject(""Register/Field_Konfirmasi kata sandi""), findTestData(""Register"").getValue(5, 1))",Edge Chromium 115,,,2023-08-12 04:25:34,2023-08-12 04:25:35,1.179s,PASSED
"check(findTestObject(""Register/Field_Check SK""))",Edge Chromium 115,,,2023-08-12 04:25:35,2023-08-12 04:25:36,0.647s,PASSED
takeFullPageScreenshot(),Edge Chromium 115,,,2023-08-12 04:25:36,2023-08-12 04:25:38,1.466s,PASSED
"click(findTestObject(""Register/Btn_Daftar""))",Edge Chromium 115,,,2023-08-12 04:25:38,2023-08-12 04:25:41,3.215s,PASSED
takeFullPageScreenshot(),Edge Chromium 115,,,2023-08-12 04:25:41,2023-08-12 04:25:42,1.030s,PASSED
closeBrowser(),Edge Chromium 115,,,2023-08-12 04:25:42,2023-08-12 04:25:45,3.435s,PASSED
,,,,,,,
Test Cases/S001-Register/WReg-019 - Register with Email contain any symbol (except At sign),Edge Chromium 115,,,2023-08-12 04:25:45,2023-08-12 04:26:41,55.864s,PASSED
"openBrowser("""")",Edge Chromium 115,,,2023-08-12 04:25:46,2023-08-12 04:25:52,6.054s,PASSED
"navigateToUrl(""https://demo-app.online/"")",Edge Chromium 115,,,2023-08-12 04:25:52,2023-08-12 04:26:16,24.062s,PASSED
"click(findTestObject(""Home/Btn_Buat Akun""))",Edge Chromium 115,,,2023-08-12 04:26:16,2023-08-12 04:26:21,4.483s,PASSED
"setText(findTestObject(""Register/Field_Nama""), findTestData(""Register"").getValue(1, 1))",Edge Chromium 115,,,2023-08-12 04:26:21,2023-08-12 04:26:22,1.303s,PASSED
"setText(findTestObject(""Register/Field_Tanggal lahir""), findTestData(""Register"").getValue(2, 1))",Edge Chromium 115,,,2023-08-12 04:26:22,2023-08-12 04:26:24,1.875s,PASSED
"setText(findTestObject(""Register/Field_E-Mail""), findTestData(""Register"").getValue(3, 3))",Edge Chromium 115,,,2023-08-12 04:26:24,2023-08-12 04:26:25,1.386s,PASSED
"setText(findTestObject(""Register/Field_Whatsapp""), findTestData(""Register"").getValue(4, 1))",Edge Chromium 115,,,2023-08-12 04:26:25,2023-08-12 04:26:27,1.165s,PASSED
"setText(findTestObject(""Register/Field_Kata Sandi""), findTestData(""Register"").getValue(5, 1))",Edge Chromium 115,,,2023-08-12 04:26:27,2023-08-12 04:26:28,1.161s,PASSED
"setText(findTestObject(""Register/Field_Konfirmasi kata sandi""), findTestData(""Register"").getValue(5, 1))",Edge Chromium 115,,,2023-08-12 04:26:28,2023-08-12 04:26:29,1.209s,PASSED
"check(findTestObject(""Register/Field_Check SK""))",Edge Chromium 115,,,2023-08-12 04:26:29,2023-08-12 04:26:30,0.615s,PASSED
takeFullPageScreenshot(),Edge Chromium 115,,,2023-08-12 04:26:30,2023-08-12 04:26:31,1.493s,PASSED
"click(findTestObject(""Register/Btn_Daftar""))",Edge Chromium 115,,,2023-08-12 04:26:31,2023-08-12 04:26:32,1.174s,PASSED
takeFullPageScreenshot(),Edge Chromium 115,,,2023-08-12 04:26:32,2023-08-12 04:26:34,1.647s,PASSED
closeBrowser(),Edge Chromium 115,,,2023-08-12 04:26:34,2023-08-12 04:26:41,7.406s,PASSED
,,,,,,,
Test Cases/S001-Register/WReg-020 - Register with Whatsapp contain alphabet,Edge Chromium 115,,,2023-08-12 04:26:41,2023-08-12 04:27:15,34.222s,PASSED
"openBrowser("""")",Edge Chromium 115,,,2023-08-12 04:26:42,2023-08-12 04:26:46,4.230s,PASSED
"navigateToUrl(""https://demo-app.online/"")",Edge Chromium 115,,,2023-08-12 04:26:46,2023-08-12 04:26:55,8.256s,PASSED
"click(findTestObject(""Home/Btn_Buat Akun""))",Edge Chromium 115,,,2023-08-12 04:26:55,2023-08-12 04:26:58,3.841s,PASSED
"setText(findTestObject(""Register/Field_Nama""), findTestData(""Register"").getValue(1, 3))",Edge Chromium 115,,,2023-08-12 04:26:58,2023-08-12 04:27:00,1.807s,PASSED
"setText(findTestObject(""Register/Field_Tanggal lahir""), findTestData(""Register"").getValue(2, 1))",Edge Chromium 115,,,2023-08-12 04:27:00,2023-08-12 04:27:02,1.891s,PASSED
"setText(findTestObject(""Register/Field_E-Mail""), findTestData(""Register"").getValue(3, 4))",Edge Chromium 115,,,2023-08-12 04:27:02,2023-08-12 04:27:04,1.519s,PASSED
"setText(findTestObject(""Register/Field_Whatsapp""), findTestData(""Register"").getValue(4, 1))",Edge Chromium 115,,,2023-08-12 04:27:04,2023-08-12 04:27:05,1.242s,PASSED
"setText(findTestObject(""Register/Field_Kata Sandi""), findTestData(""Register"").getValue(5, 1))",Edge Chromium 115,,,2023-08-12 04:27:05,2023-08-12 04:27:06,1.205s,PASSED
"setText(findTestObject(""Register/Field_Konfirmasi kata sandi""), findTestData(""Register"").getValue(5, 1))",Edge Chromium 115,,,2023-08-12 04:27:06,2023-08-12 04:27:07,1.153s,PASSED
"check(findTestObject(""Register/Field_Check SK""))",Edge Chromium 115,,,2023-08-12 04:27:07,2023-08-12 04:27:08,0.588s,PASSED
takeFullPageScreenshot(),Edge Chromium 115,,,2023-08-12 04:27:08,2023-08-12 04:27:09,1.571s,PASSED
"click(findTestObject(""Register/Btn_Daftar""))",Edge Chromium 115,,,2023-08-12 04:27:09,2023-08-12 04:27:13,3.907s,PASSED
takeFullPageScreenshot(),Edge Chromium 115,,,2023-08-12 04:27:13,2023-08-12 04:27:14,1.117s,PASSED
closeBrowser(),Edge Chromium 115,,,2023-08-12 04:27:14,2023-08-12 04:27:15,0.980s,PASSED
